{
  "sports": [
    {
      "id": 100,
      "title": "Football",
      "pos": 1,
	  "events": []
    },
    {
      "id": 600,
      "title": "Tennis",
      "pos": 2,
	  "events": []
    },
    {
      "id": 1200,
      "title": "Volleyball",
      "pos": 23,
	  "events": []
    },
    {
      "id": 601600,
      "title": "Basketball",
      "pos": 4,
	  "events": []
    }
  ]
}
